{
    "tracks": {
        "href": "https://api.spotify.com/v1/search?query=Celebration+Dance+Ronaldo+Siu+You+Can+Do+It&type=track&offset=0&limit=1",
        "items": [
            {
                "album": {
                    "album_type": "compilation",
                    "artists": [
                        {
                            "external_urls": {
                                "spotify": "https://open.spotify.com/artist/6tbjWDEIzxoDsBA1FuhfPW"
                            },
                            "href": "https://api.spotify.com/v1/artists/6tbjWDEIzxoDsBA1FuhfPW",
                            "id": "6tbjWDEIzxoDsBA1FuhfPW",
                            "name": "Madonna",
                            "type": "artist",
                            "uri": "spotify:artist:6tbjWDEIzxoDsBA1FuhfPW"
                        }
                    ],
                    "available_markets": [
                        "AD",
                        "AE",
                        "AL",
                        "AM",
                        "AO",
                        "AR",
                        "AT",
                        "AU",
                        "AZ",
                        "BA",
                        "BD",
                        "BF",
                        "BG",
                        "BH",
                        "BI",
                        "BJ",
                        "BO",
                        "BR",
                        "BW",
                        "BY",
                        "BZ",
                        "CA",
                        "CD",
                        "CG",
                        "CH",
                        "CI",
                        "CL",
                        "CM",
                        "CO",
                        "CR",
                        "CV",
                        "CW",
                        "CY",
                        "CZ",
                        "DE",
                        "DJ",
                        "DK",
                        "DZ",
                        "EC",
                        "EE",
                        "EG",
                        "ES",
                        "FI",
                        "FR",
                        "GA",
                        "GB",
                        "GE",
                        "GH",
                        "GM",
                        "GN",
                        "GQ",
                        "GR",
                        "GT",
                        "GW",
                        "GY",
                        "HK",
                        "HN",
                        "HR",
                        "HU",
                        "ID",
                        "IE",
                        "IL",
                        "IN",
                        "IQ",
                        "IS",
                        "IT",
                        "JO",
                        "JP",
                        "KE",
                        "KG",
                        "KM",
                        "KR",
                        "KW",
                        "KZ",
                        "LB",
                        "LI",
                        "LR",
                        "LS",
                        "LT",
                        "LU",
                        "LV",
                        "LY",
                        "MA",
                        "MC",
                        "MD",
                        "MG",
                        "MK",
                        "ML",
                        "MR",
                        "MT",
                        "MU",
                        "MW",
                        "MX",
                        "MY",
                        "MZ",
                        "NA",
                        "NE",
                        "NG",
                        "NI",
                        "NL",
                        "NO",
                        "NZ",
                        "OM",
                        "PA",
                        "PE",
                        "PH",
                        "PK",
                        "PL",
                        "PS",
                        "PT",
                        "PY",
                        "QA",
                        "RO",
                        "RW",
                        "SA",
                        "SC",
                        "SE",
                        "SG",
                        "SI",
                        "SK",
                        "SL",
                        "SM",
                        "SN",
                        "SR",
                        "ST",
                        "SV",
                        "SZ",
                        "TD",
                        "TG",
                        "TH",
                        "TJ",
                        "TN",
                        "TR",
                        "TW",
                        "TZ",
                        "UA",
                        "UG",
                        "US",
                        "UY",
                        "UZ",
                        "VE",
                        "ZA",
                        "ZM",
                        "ZW"
                    ],
                    "external_urls": {
                        "spotify": "https://open.spotify.com/album/43lok9zd7BW5CoYkXZs7S0"
                    },
                    "href": "https://api.spotify.com/v1/albums/43lok9zd7BW5CoYkXZs7S0",
                    "id": "43lok9zd7BW5CoYkXZs7S0",
                    "images": [
                        {
                            "height": 640,
                            "url": "https://i.scdn.co/image/ab67616d0000b2738f9f218b386e6aeb27184307",
                            "width": 640
                        },
                        {
                            "height": 300,
                            "url": "https://i.scdn.co/image/ab67616d00001e028f9f218b386e6aeb27184307",
                            "width": 300
                        },
                        {
                            "height": 64,
                            "url": "https://i.scdn.co/image/ab67616d000048518f9f218b386e6aeb27184307",
                            "width": 64
                        }
                    ],
                    "name": "Celebration (double disc version)",
                    "release_date": "2009-09-18",
                    "release_date_precision": "day",
                    "total_tracks": 37,
                    "type": "album",
                    "uri": "spotify:album:43lok9zd7BW5CoYkXZs7S0"
                },
                "artists": [
                    {
                        "external_urls": {
                            "spotify": "https://open.spotify.com/artist/6tbjWDEIzxoDsBA1FuhfPW"
                        },
                        "href": "https://api.spotify.com/v1/artists/6tbjWDEIzxoDsBA1FuhfPW",
                        "id": "6tbjWDEIzxoDsBA1FuhfPW",
                        "name": "Madonna",
                        "type": "artist",
                        "uri": "spotify:artist:6tbjWDEIzxoDsBA1FuhfPW"
                    },
                    {
                        "external_urls": {
                            "spotify": "https://open.spotify.com/artist/4Ws2otunReOa6BbwxxpCt6"
                        },
                        "href": "https://api.spotify.com/v1/artists/4Ws2otunReOa6BbwxxpCt6",
                        "id": "4Ws2otunReOa6BbwxxpCt6",
                        "name": "Benny Benassi",
                        "type": "artist",
                        "uri": "spotify:artist:4Ws2otunReOa6BbwxxpCt6"
                    }
                ],
                "available_markets": [
                    "AD",
                    "AE",
                    "AL",
                    "AM",
                    "AO",
                    "AR",
                    "AT",
                    "AU",
                    "AZ",
                    "BA",
                    "BD",
                    "BF",
                    "BG",
                    "BH",
                    "BI",
                    "BJ",
                    "BO",
                    "BR",
                    "BW",
                    "BY",
                    "BZ",
                    "CA",
                    "CD",
                    "CG",
                    "CH",
                    "CI",
                    "CL",
                    "CM",
                    "CO",
                    "CR",
                    "CV",
                    "CW",
                    "CY",
                    "CZ",
                    "DE",
                    "DJ",
                    "DK",
                    "DZ",
                    "EC",
                    "EE",
                    "EG",
                    "ES",
                    "FI",
                    "FR",
                    "GA",
                    "GB",
                    "GE",
                    "GH",
                    "GM",
                    "GN",
                    "GQ",
                    "GR",
                    "GT",
                    "GW",
                    "GY",
                    "HK",
                    "HN",
                    "HR",
                    "HU",
                    "ID",
                    "IE",
                    "IL",
                    "IN",
                    "IQ",
                    "IS",
                    "IT",
                    "JO",
                    "JP",
                    "KE",
                    "KG",
                    "KM",
                    "KR",
                    "KW",
                    "KZ",
                    "LB",
                    "LI",
                    "LR",
                    "LS",
                    "LT",
                    "LU",
                    "LV",
                    "LY",
                    "MA",
                    "MC",
                    "MD",
                    "MG",
                    "MK",
                    "ML",
                    "MR",
                    "MT",
                    "MU",
                    "MW",
                    "MX",
                    "MY",
                    "MZ",
                    "NA",
                    "NE",
                    "NG",
                    "NI",
                    "NL",
                    "NO",
                    "NZ",
                    "OM",
                    "PA",
                    "PE",
                    "PH",
                    "PK",
                    "PL",
                    "PS",
                    "PT",
                    "PY",
                    "QA",
                    "RO",
                    "RW",
                    "SA",
                    "SC",
                    "SE",
                    "SG",
                    "SI",
                    "SK",
                    "SL",
                    "SM",
                    "SN",
                    "SR",
                    "ST",
                    "SV",
                    "SZ",
                    "TD",
                    "TG",
                    "TH",
                    "TJ",
                    "TN",
                    "TR",
                    "TW",
                    "TZ",
                    "UA",
                    "UG",
                    "US",
                    "UY",
                    "UZ",
                    "VE",
                    "ZA",
                    "ZM",
                    "ZW"
                ],
                "disc_number": 1,
                "duration_ms": 238733,
                "explicit": false,
                "external_ids": {
                    "isrc": "USWB10903179"
                },
                "external_urls": {
                    "spotify": "https://open.spotify.com/track/575xzhWsvMHOe8qtnKl4ej"
                },
                "href": "https://api.spotify.com/v1/tracks/575xzhWsvMHOe8qtnKl4ej",
                "id": "575xzhWsvMHOe8qtnKl4ej",
                "is_local": false,
                "name": "Celebration - Benny Benassi Remix Edit",
                "popularity": 38,
                "preview_url": "https://p.scdn.co/mp3-preview/41409dce9b3517aa6d67794e30d6ea320978c377?cid=8d94e995f88e4840bebbf9b258c6fa55",
                "track_number": 37,
                "type": "track",
                "uri": "spotify:track:575xzhWsvMHOe8qtnKl4ej"
            }
        ],
        "limit": 1,
        "next": "https://api.spotify.com/v1/search?query=Celebration+Dance+Ronaldo+Siu+You+Can+Do+It&type=track&offset=1&limit=1",
        "offset": 0,
        "previous": null,
        "total": 256
    }
}